<svg width="21" height="23" viewBox="0 0 21 23" fill="none" xmlns="http://www.w3.org/2000/svg">
<path d="M20.4474 19.964C20.8158 20.332 21 20.7767 21 21.298C21 21.758 20.8311 22.1567 20.4934 22.494C20.1557 22.8313 19.7566 23 19.2961 23C18.8048 23 18.3596 22.7853 17.9605 22.356L10.5 13.846L3.08553 22.356C2.6864 22.7853 2.24123 23 1.75 23C1.28947 23 0.875 22.8313 0.506579 22.494C0.16886 22.1567 0 21.7427 0 21.252C0 20.792 0.184211 20.3627 0.552632 19.964L8.19737 11.362L0.875 3.036C0.506579 2.60667 0.322368 2.17733 0.322368 1.748C0.322368 1.25733 0.491228 0.843333 0.828947 0.506C1.19737 0.168667 1.59649 0 2.02632 0C2.51754 0 2.96272 0.214667 3.36184 0.644L10.5 8.832L17.6382 0.644C18.0373 0.214667 18.4825 0 18.9737 0C19.4342 0 19.8333 0.168667 20.1711 0.506C20.5088 0.843333 20.6776 1.242 20.6776 1.702C20.6776 2.22333 20.4934 2.668 20.125 3.036L12.8026 11.362L20.4474 19.964Z" fill="white"/>
</svg>
